Genomic distance bias correction. — OverExpectedHiC • HicAggR
…
#>   name    length dimension
#>   <chr>    <dbl>     <dbl>
#> 1 2L    23513712       236
#> 2 2R    25286936       253
#> attr(,"matricesKind")
#> # A tibble: 3 × 4
#>   name  type  kind  symmetric
#>   <chr> <chr> <chr> <lgl>    
#> 1 2L_2L cis   U     TRUE     
#> 2 2L_2R trans NA    FALSE    
#> 3 2R_2R cis   U     TRUE     
#> attr(,"mtx")
#> [1] "o/e"
#> attr(,"expected")
#> # A tibble: 253 × 2
#>    distance expected
#>       <dbl>    <dbl>
#>  1        1   44559.
#>  2   100001   12794.
#>  3   200001    3665.
#>  4   300001    2130.
#>  5   400001    1445.
#>  6   500001    1092.
#>  7   600001     876.
#>  8   700001     739.
#>  9   800001     625.
#> 10   900001     550.
#> # ℹ 243 more rows
…
