HicAggR - In depth tutorial • HicAggR
…
#> 2 2R    25286936      5058
#> 
#> $matricesKind
#> # A tibble: 3 × 4
#>   name  type  kind  symmetric
#>   <chr> <chr> <chr> <lgl>    
#> 1 2L_2L cis   U     TRUE     
#> 2 2L_2R trans NA    FALSE    
#> 3 2R_2R cis   U     TRUE     
#> 
#> $mtx
#> [1] "o/e"
#> 
#> $expected
#> # A tibble: 4,961 × 2
#>   distance expected
#>      <dbl>    <dbl>
#> 1        1     733.
#> 2     5001     689.
#> 3    10001     377.
#> 4    15001     257.
#> # ℹ 4,957 more rows
…
